<?xml version="1.0" encoding="utf-8"?>
<!-- Generator: Adobe Illustrator 15.1.0, SVG Export Plug-In . SVG Version: 6.00 Build 0)  -->
<!DOCTYPE svg PUBLIC "-//W3C//DTD SVG 1.1//EN" "http://www.w3.org/Graphics/SVG/1.1/DTD/svg11.dtd">
<svg version="1.1" id="Layer_1" xmlns="http://www.w3.org/2000/svg" xmlns:xlink="http://www.w3.org/1999/xlink" x="0px" y="0px"
	 width="85.796px" height="93.662px" viewBox="-3.181 2.509 85.796 93.662" enable-background="new -3.181 2.509 85.796 93.662"
	 xml:space="preserve">
<g>
	<g>
		<path fill="#FFFFFF" d="M65.312,74.617c-6.938,6.939-15.328,10.406-25.172,10.406s-18.234-3.467-25.172-10.406
			C8.028,67.68,4.562,59.289,4.562,49.445s3.467-18.232,10.406-25.172c6.938-6.938,15.328-10.406,25.172-10.406
			s18.233,3.471,25.172,10.406c6.938,6.939,10.406,15.328,10.406,25.172S72.248,67.68,65.312,74.617z M60.53,29.054
			c-5.625-5.625-12.422-8.438-20.391-8.438c-7.97,0-14.766,2.813-20.391,8.438s-8.438,12.423-8.438,20.391
			c0,7.971,2.813,14.766,8.438,20.391s12.421,8.438,20.391,8.438c7.967,0,14.766-2.813,20.391-8.438s8.439-12.42,8.439-20.391
			C68.968,41.478,66.155,34.679,60.53,29.054z M21.155,56.054v4.781c0.281-0.375,0.703-0.75,1.267-1.125
			c0.374-0.375,0.795-0.608,1.267-0.703c0.281-0.092,0.748-0.141,1.406-0.141c0.936,0,1.639,0.188,2.108,0.563
			c0.468,0.189,0.983,0.656,1.547,1.406c0,0.095,0.046,0.234,0.142,0.422c0.187,0.375,0.28,0.656,0.28,0.844
			c0.093,0.281,0.142,0.844,0.142,1.688v5.906c0,0.563-0.142,1.079-0.422,1.547c-0.281,0.281-0.658,0.422-1.125,0.422
			c-1.033,0-1.547-0.654-1.547-1.969v-5.203c0-1.125-0.189-1.92-0.563-2.391c-0.281-0.563-0.845-0.844-1.688-0.844
			c-0.563,0-1.078,0.188-1.547,0.563c-0.376,0.189-0.703,0.611-0.984,1.266c-0.188,0.563-0.28,1.406-0.28,2.531v4.078
			c0,0.563-0.142,1.079-0.423,1.547c-0.28,0.281-0.656,0.422-1.125,0.422c-1.032,0-1.547-0.654-1.547-1.969V56.054
			c0-0.655,0.142-1.125,0.422-1.406c0.281-0.281,0.656-0.422,1.125-0.422s0.845,0.141,1.125,0.422
			C21.015,54.929,21.155,55.399,21.155,56.054z M27.624,49.164h8.578c0.844,0,1.499,0.189,1.969,0.563
			c0.374,0.28,0.563,0.751,0.563,1.405c0,0.564-0.141,1.033-0.422,1.406c-0.375,0.377-0.938,0.563-1.688,0.563H24.53
			c-0.844,0-1.502-0.233-1.969-0.703c-0.471-0.468-0.703-0.983-0.703-1.547c0-0.374,0.141-0.937,0.422-1.688
			c0.092-0.187,0.422-0.703,0.984-1.547c0.563-0.468,1.266-1.146,2.108-2.039c0.844-0.89,1.452-1.477,1.828-1.758
			c1.312-1.125,2.155-1.828,2.53-2.109c0.656-0.467,1.406-1.125,2.25-1.969c0.656-0.654,1.125-1.312,1.406-1.969
			c0.281-0.654,0.422-1.313,0.422-1.969c0-0.749-0.141-1.406-0.422-1.969c-0.47-0.563-0.938-0.984-1.406-1.267
			c-0.563-0.28-1.172-0.422-1.828-0.422c-1.594,0-2.719,0.61-3.375,1.828c-0.28,0.28-0.469,0.751-0.563,1.405
			c-0.281,0.752-0.611,1.314-0.984,1.689c-0.28,0.375-0.75,0.563-1.405,0.563c-0.563,0-0.984-0.188-1.267-0.563
			c-0.375-0.281-0.563-0.75-0.563-1.406c0-0.75,0.141-1.547,0.422-2.392c0.469-0.937,0.984-1.688,1.547-2.25
			c0.655-0.655,1.499-1.217,2.531-1.688c1.029-0.373,2.25-0.563,3.656-0.563c1.779,0,3.234,0.281,4.359,0.844
			c0.654,0.281,1.311,0.752,1.969,1.406c0.654,0.471,1.125,1.173,1.406,2.109c0.373,1.125,0.563,1.969,0.563,2.531
			c0,1.405-0.377,2.625-1.125,3.655c-0.657,1.22-1.314,2.108-1.969,2.673c-0.563,0.563-1.782,1.547-3.656,2.952
			c-1.877,1.688-3.002,2.767-3.375,3.233C27.951,48.555,27.717,48.882,27.624,49.164z M42.812,65.335
			c0,0.844-0.141,1.688-0.422,2.531c-0.188,0.563-0.611,1.266-1.266,2.108c-0.563,0.563-1.221,0.983-1.969,1.267
			c-0.844,0.28-1.736,0.422-2.672,0.422c-0.938,0-1.782-0.142-2.531-0.422c-0.563-0.188-1.221-0.656-1.969-1.406
			c-0.563-0.563-0.984-1.217-1.267-1.969c-0.28-0.845-0.422-1.689-0.422-2.531c0-0.937,0.142-1.828,0.422-2.672
			c0.281-0.845,0.703-1.547,1.267-2.109c0.563-0.655,1.217-1.077,1.969-1.266c0.749-0.281,1.593-0.422,2.531-0.422
			c0.936,0,1.828,0.141,2.672,0.422c0.654,0.28,1.312,0.75,1.969,1.405c0.654,0.563,1.077,1.22,1.266,1.97
			C42.671,63.507,42.812,64.399,42.812,65.335z M39.577,65.335c0-1.406-0.281-2.438-0.844-3.094
			c-0.563-0.656-1.314-0.984-2.25-0.984c-0.563,0-1.08,0.141-1.547,0.422c-0.377,0.189-0.752,0.656-1.125,1.406
			c-0.281,0.563-0.422,1.313-0.422,2.25c0,0.844,0.141,1.547,0.422,2.108c0.373,0.751,0.703,1.22,0.983,1.406
			c0.563,0.28,1.125,0.422,1.688,0.422c0.936,0,1.688-0.327,2.25-0.983C39.296,67.541,39.577,66.555,39.577,65.335z M51.952,50.992
			v-3.094h-8.297c-0.938,0-1.736-0.232-2.391-0.703c-0.563-0.373-0.845-1.029-0.845-1.969v-0.281l0.142-0.281
			c0.092-0.092,0.187-0.211,0.28-0.352c0.093-0.141,0.142-0.257,0.142-0.352c0-0.092,0.045-0.211,0.141-0.353
			c0.092-0.142,0.188-0.257,0.281-0.353c0.281-0.28,0.514-0.563,0.703-0.844l8.719-11.672c0.654-0.844,1.125-1.357,1.406-1.547
			c0.281-0.374,0.703-0.563,1.266-0.563c1.688,0,2.531,0.938,2.531,2.813V44.24h0.703c0.748,0,1.406,0.096,1.969,0.281
			c0.563,0.281,0.844,0.798,0.844,1.547c0,0.657-0.234,1.125-0.703,1.406c-0.47,0.281-1.078,0.422-1.828,0.422h-0.983v3.094
			c0,0.844-0.188,1.455-0.563,1.828c-0.47,0.471-0.984,0.703-1.547,0.703c-0.656,0-1.125-0.232-1.406-0.703
			C52.14,52.446,51.952,51.835,51.952,50.992z M52.093,69.835v-0.281c-0.563,0.563-0.984,0.938-1.266,1.125
			c-0.563,0.376-1.033,0.611-1.406,0.703c-0.563,0.188-1.125,0.281-1.688,0.281c-0.752,0-1.406-0.142-1.969-0.422
			c-0.752-0.564-1.221-1.031-1.406-1.406c-0.377-0.469-0.563-1.406-0.563-2.813v-6.328c0-0.563,0.142-1.03,0.422-1.405
			c0.281-0.281,0.655-0.422,1.125-0.422c0.468,0,0.845,0.141,1.125,0.422c0.281,0.375,0.423,0.844,0.423,1.405v5.063
			c0,0.281,0.021,0.633,0.069,1.055c0.046,0.422,0.069,0.682,0.069,0.773c0.093,0.47,0.328,0.892,0.703,1.266
			c0.281,0.281,0.703,0.422,1.267,0.422c0.468,0,0.983-0.188,1.547-0.563s0.89-0.795,0.983-1.267
			c0.188-0.28,0.281-1.217,0.281-2.813v-3.938c0-0.563,0.142-1.029,0.422-1.406c0.281-0.281,0.656-0.422,1.125-0.422
			s0.845,0.141,1.125,0.422c0.375,0.377,0.563,0.844,0.563,1.406v9.141c0,0.658-0.142,1.125-0.422,1.406
			c-0.281,0.281-0.657,0.422-1.125,0.422c-0.376,0-0.703-0.141-0.983-0.422C52.233,70.958,52.093,70.494,52.093,69.835z
			 M44.78,44.242h7.173v-9.563L44.78,44.242z M59.827,67.164v2.531c0,0.563-0.141,1.079-0.422,1.547
			c-0.281,0.281-0.657,0.422-1.125,0.422c-0.471,0-0.844-0.141-1.125-0.422c-0.281-0.468-0.422-0.984-0.422-1.547v-8.719
			c0-1.406,0.468-2.109,1.406-2.109c0.563,0,0.983,0.189,1.266,0.563c0.187,0.376,0.281,0.844,0.281,1.405
			c0.28-0.467,0.654-0.936,1.125-1.405c0.373-0.374,0.936-0.563,1.688-0.563c0.749,0,1.357,0.189,1.828,0.563
			c0.654,0.28,0.984,0.702,0.984,1.267c0,0.375-0.142,0.702-0.422,0.983c-0.377,0.188-0.658,0.28-0.845,0.28
			c-0.28,0-0.563-0.045-0.844-0.141c-0.563-0.188-0.938-0.281-1.125-0.281c-0.47,0-0.845,0.142-1.125,0.422
			c-0.376,0.377-0.611,0.752-0.703,1.125c-0.188,0.563-0.281,1.125-0.281,1.688C59.873,65.149,59.827,65.946,59.827,67.164z"/>
	</g>
</g>
<g>
	<path fill="#FFFFFF" d="M9.66,16.216c0.463,0.457,0.663,0.966,0.601,1.527c-0.062,0.563-0.384,1.137-0.964,1.725l-0.53,0.539
		l1.799,1.773l-0.524,0.532L5.467,17.8l1.171-1.186C7.765,15.472,8.772,15.339,9.66,16.216z M8.31,19.556l0.471-0.479
		c0.466-0.472,0.727-0.888,0.781-1.248c0.057-0.361-0.084-0.707-0.42-1.039c-0.303-0.297-0.625-0.42-0.969-0.369
		c-0.343,0.052-0.722,0.287-1.136,0.707l-0.586,0.594L8.31,19.556z"/>
	<path fill="#FFFFFF" d="M13.188,12.908c0.17-0.131,0.332-0.234,0.487-0.312l0.337,0.596c-0.186,0.089-0.338,0.179-0.457,0.271
		c-0.309,0.24-0.475,0.57-0.498,0.99c-0.024,0.418,0.107,0.814,0.397,1.188l1.586,2.04l-0.576,0.448l-2.957-3.803l0.476-0.369
		l0.613,0.652l0.028-0.021c-0.051-0.356-0.03-0.68,0.065-0.969C12.785,13.33,12.951,13.093,13.188,12.908z"/>
	<path fill="#FFFFFF" d="M19.86,14.505c-0.612,0.361-1.207,0.461-1.781,0.295c-0.575-0.163-1.059-0.577-1.45-1.241
		c-0.396-0.668-0.543-1.297-0.446-1.886c0.096-0.588,0.422-1.045,0.979-1.373c0.52-0.307,1.031-0.377,1.535-0.215
		c0.505,0.164,0.923,0.525,1.254,1.086l0.234,0.396l-2.857,1.686c0.3,0.479,0.641,0.777,1.023,0.892
		c0.381,0.114,0.784,0.047,1.209-0.203c0.446-0.264,0.832-0.618,1.16-1.062l0.33,0.56c-0.166,0.228-0.335,0.42-0.508,0.578
		C20.368,14.177,20.142,14.339,19.86,14.505z M17.464,10.833c-0.333,0.197-0.535,0.461-0.604,0.795
		c-0.07,0.334-0.01,0.703,0.181,1.107l2.169-1.279c-0.234-0.396-0.501-0.647-0.802-0.754C18.106,10.597,17.792,10.639,17.464,10.833
		z"/>
	<path fill="#FFFFFF" d="M25.582,10.227c0.173,0.414,0.151,0.797-0.062,1.149c-0.215,0.354-0.601,0.646-1.158,0.879
		c-0.588,0.248-1.086,0.347-1.494,0.297l-0.262-0.623c0.26,0.02,0.523,0.008,0.795-0.032c0.271-0.04,0.52-0.108,0.746-0.203
		c0.352-0.147,0.599-0.315,0.74-0.508c0.143-0.19,0.166-0.401,0.069-0.631c-0.071-0.173-0.209-0.29-0.411-0.351
		c-0.201-0.061-0.555-0.082-1.061-0.068c-0.478,0.02-0.827,0.008-1.049-0.034c-0.224-0.042-0.408-0.118-0.554-0.229
		c-0.146-0.109-0.262-0.267-0.347-0.469c-0.15-0.361-0.124-0.71,0.083-1.042c0.207-0.331,0.567-0.606,1.081-0.821
		c0.479-0.199,0.986-0.299,1.525-0.295l-0.011,0.647c-0.522,0.003-0.965,0.08-1.327,0.231c-0.318,0.133-0.539,0.285-0.658,0.453
		c-0.121,0.168-0.145,0.34-0.07,0.514c0.05,0.119,0.123,0.209,0.219,0.267s0.227,0.097,0.395,0.116
		c0.166,0.02,0.472,0.02,0.916,0.002c0.606-0.027,1.043,0.016,1.311,0.133S25.459,9.932,25.582,10.227z"/>
	<path fill="#FFFFFF" d="M30.603,8.723c0.119,0.433,0.049,0.81-0.207,1.133c-0.258,0.324-0.678,0.565-1.258,0.728
		c-0.617,0.17-1.123,0.205-1.521,0.105l-0.18-0.652c0.254,0.051,0.518,0.074,0.791,0.068s0.529-0.042,0.767-0.107
		c0.366-0.102,0.633-0.238,0.798-0.41c0.166-0.172,0.215-0.377,0.148-0.617c-0.051-0.182-0.172-0.313-0.363-0.398
		s-0.54-0.152-1.043-0.203c-0.477-0.041-0.822-0.097-1.038-0.166c-0.215-0.07-0.39-0.168-0.521-0.297
		c-0.131-0.128-0.226-0.297-0.285-0.509c-0.104-0.378-0.032-0.72,0.215-1.022c0.248-0.305,0.639-0.531,1.176-0.68
		c0.5-0.138,1.018-0.171,1.55-0.1l-0.092,0.641c-0.519-0.063-0.968-0.042-1.347,0.063c-0.332,0.092-0.569,0.214-0.711,0.365
		c-0.141,0.15-0.186,0.318-0.135,0.502c0.035,0.123,0.096,0.221,0.184,0.291c0.088,0.069,0.213,0.125,0.376,0.164
		c0.163,0.041,0.466,0.08,0.907,0.119c0.606,0.047,1.035,0.146,1.283,0.297C30.347,8.186,30.517,8.416,30.603,8.723z"/>
	<path fill="#FFFFFF" d="M40.797,8.929L40.05,8.96l-0.125-3.021L36.544,6.08l0.125,3.021l-0.747,0.031l-0.267-6.42l0.746-0.03
		l0.113,2.731l3.381-0.142l-0.113-2.731l0.746-0.031L40.797,8.929z"/>
	<path fill="#FFFFFF" d="M45.508,9.446c-0.707-0.09-1.235-0.376-1.589-0.858s-0.48-1.105-0.383-1.871
		c0.099-0.77,0.365-1.357,0.804-1.762c0.437-0.406,0.976-0.566,1.615-0.484c0.599,0.076,1.047,0.334,1.346,0.771
		c0.3,0.438,0.406,0.98,0.324,1.625l-0.06,0.459l-3.291-0.422c-0.058,0.563,0.031,1.008,0.262,1.332
		c0.232,0.325,0.592,0.52,1.08,0.582c0.514,0.064,1.037,0.023,1.566-0.127l-0.082,0.645c-0.271,0.078-0.522,0.127-0.756,0.146
		C46.108,9.5,45.83,9.488,45.508,9.446z M45.867,5.076c-0.384-0.05-0.705,0.036-0.966,0.258c-0.26,0.221-0.438,0.549-0.535,0.985
		l2.498,0.319c0.058-0.456,0.001-0.819-0.172-1.088C46.521,5.283,46.245,5.125,45.867,5.076z"/>
	<path fill="#FFFFFF" d="M52.61,5.837c0.207,0.055,0.388,0.119,0.543,0.197l-0.268,0.629c-0.183-0.094-0.347-0.16-0.494-0.197
		c-0.377-0.1-0.74-0.029-1.088,0.207s-0.58,0.582-0.699,1.039l-0.651,2.5l-0.706-0.185l1.214-4.661l0.583,0.152l-0.145,0.884
		l0.035,0.009c0.252-0.258,0.521-0.438,0.808-0.539C52.028,5.774,52.317,5.761,52.61,5.837z"/>
	<path fill="#FFFFFF" d="M55.413,12.109c-0.66-0.268-1.1-0.678-1.318-1.234c-0.22-0.557-0.186-1.191,0.104-1.906
		c0.291-0.721,0.699-1.221,1.225-1.5c0.525-0.28,1.088-0.301,1.686-0.059c0.56,0.225,0.928,0.588,1.104,1.088
		s0.144,1.051-0.101,1.654L57.94,10.58l-3.076-1.242c-0.199,0.529-0.227,0.98-0.086,1.354c0.143,0.373,0.44,0.652,0.897,0.836
		c0.479,0.194,0.997,0.286,1.548,0.275l-0.244,0.603c-0.281,0.007-0.537-0.011-0.768-0.052S55.715,12.23,55.413,12.109z
		 M56.871,7.972c-0.358-0.145-0.69-0.145-0.999,0.004c-0.309,0.146-0.564,0.42-0.77,0.816l2.336,0.943
		c0.172-0.426,0.209-0.792,0.109-1.095C57.45,8.337,57.224,8.115,56.871,7.972z"/>
	<path fill="#FFFFFF" d="M65.343,12.563L64.312,11.9l-2.297,3.576l-0.613-0.395l2.295-3.576l-0.725-0.465l0.178-0.276l0.867,0.243
		l0.146-0.225c0.639-0.996,1.394-1.216,2.265-0.656c0.215,0.138,0.438,0.342,0.672,0.613l-0.476,0.391
		c-0.188-0.229-0.365-0.396-0.533-0.504c-0.231-0.149-0.452-0.183-0.663-0.1c-0.21,0.083-0.424,0.295-0.643,0.635l-0.168,0.262
		l1.031,0.664L65.343,12.563z"/>
	<path fill="#FFFFFF" d="M69.131,17.892c-0.502,0.604-1.046,0.947-1.633,1.033c-0.586,0.086-1.147-0.096-1.683-0.541
		c-0.332-0.276-0.561-0.598-0.688-0.967c-0.127-0.369-0.14-0.758-0.037-1.164c0.103-0.407,0.315-0.805,0.64-1.194
		c0.502-0.604,1.045-0.948,1.627-1.033s1.142,0.095,1.677,0.542c0.518,0.432,0.786,0.946,0.804,1.544
		C69.854,16.71,69.621,17.304,69.131,17.892z M66.312,15.542c-0.394,0.474-0.599,0.912-0.615,1.317
		c-0.018,0.405,0.158,0.761,0.523,1.065c0.367,0.307,0.75,0.416,1.145,0.328c0.396-0.088,0.791-0.371,1.187-0.846
		c0.392-0.471,0.595-0.906,0.607-1.31c0.013-0.402-0.166-0.759-0.537-1.067c-0.367-0.307-0.744-0.416-1.132-0.332
		C67.101,14.785,66.709,15.066,66.312,15.542z"/>
	<path fill="#FFFFFF" d="M74.165,19.558c0.145,0.158,0.262,0.311,0.352,0.459l-0.566,0.384c-0.104-0.176-0.206-0.321-0.309-0.433
		c-0.265-0.287-0.606-0.426-1.027-0.416c-0.42,0.011-0.803,0.176-1.15,0.496l-1.902,1.748l-0.494-0.537L72.612,18l0.408,0.442
		l-0.6,0.665l0.023,0.025c0.353-0.08,0.676-0.084,0.972-0.014C73.711,19.189,73.961,19.335,74.165,19.558z"/>
</g>
<g>
	<path fill="#FFFFFF" d="M-1.373,71.269l-1.808-3.816l0.568-0.27l2.262,0.801c0.691,0.243,1.174,0.391,1.445,0.443
		c0.27,0.054,0.52,0.072,0.745,0.056s0.449-0.075,0.668-0.181c0.31-0.145,0.511-0.356,0.603-0.631
		c0.093-0.273,0.061-0.578-0.098-0.91c-0.113-0.241-0.262-0.451-0.443-0.629s-0.439-0.35-0.774-0.516l0.283-0.563
		c0.698,0.324,1.196,0.801,1.495,1.432c0.258,0.545,0.32,1.039,0.188,1.48c-0.133,0.443-0.435,0.775-0.906,0.998
		c-0.367,0.175-0.781,0.244-1.238,0.209C1.158,69.136,0.521,68.966-0.3,68.66l-1.846-0.682l-0.031,0.016l1.414,2.986L-1.373,71.269z
		"/>
	<path fill="#FFFFFF" d="M3.937,76.869L3.399,76.08l-1.219,0.832l-0.395-0.576l1.22-0.832l-1.761-2.582l0.525-0.358l5.31,0.069
		l0.437,0.64l-3.57,2.435l0.539,0.789L3.937,76.869z M3.554,75.128l1.764-1.203c0.347-0.236,0.746-0.491,1.197-0.764l-0.02-0.029
		c-0.313,0.041-0.579,0.063-0.801,0.066l-3.49-0.049L3.554,75.128z"/>
	<path fill="#FFFFFF" d="M10.911,86.082l-0.561-0.496l2.002-2.266l-2.535-2.24l-2.002,2.267l-0.561-0.495l4.253-4.814l0.56,0.494
		l-1.81,2.049l2.536,2.24l1.811-2.049l0.56,0.495L10.911,86.082z"/>
	<path fill="#FFFFFF" d="M19.104,88.583c-0.405,0.672-0.891,1.097-1.457,1.271c-0.565,0.174-1.147,0.081-1.746-0.278
		c-0.368-0.222-0.645-0.505-0.826-0.851c-0.182-0.347-0.254-0.728-0.215-1.146s0.189-0.843,0.451-1.277
		c0.404-0.674,0.889-1.096,1.451-1.27c0.562-0.173,1.141-0.08,1.738,0.279c0.578,0.348,0.921,0.814,1.029,1.404
		C19.642,87.306,19.498,87.927,19.104,88.583z M15.96,86.692c-0.316,0.526-0.453,0.992-0.408,1.396
		c0.045,0.404,0.271,0.729,0.682,0.975s0.803,0.295,1.18,0.148c0.377-0.147,0.727-0.486,1.044-1.017
		c0.315-0.524,0.448-0.987,0.401-1.387c-0.049-0.399-0.28-0.726-0.694-0.974c-0.41-0.246-0.799-0.299-1.169-0.154
		C16.625,85.822,16.28,86.16,15.96,86.692z"/>
	<path fill="#FFFFFF" d="M23.511,88l-1.142,2.908c-0.144,0.366-0.167,0.672-0.071,0.918c0.096,0.244,0.321,0.438,0.676,0.576
		c0.469,0.184,0.861,0.189,1.18,0.02c0.316-0.172,0.59-0.547,0.818-1.129l0.924-2.355l0.68,0.268l-1.76,4.482l-0.561-0.221
		l0.139-0.639l-0.037-0.016c-0.227,0.167-0.485,0.26-0.778,0.279c-0.293,0.021-0.597-0.031-0.914-0.155
		c-0.545-0.214-0.903-0.504-1.073-0.87c-0.169-0.365-0.143-0.833,0.081-1.402l1.151-2.934L23.511,88z"/>
	<path fill="#FFFFFF" d="M31.452,90.408c0.208,0.049,0.391,0.111,0.548,0.186l-0.255,0.635c-0.184-0.089-0.35-0.15-0.498-0.186
		c-0.379-0.09-0.74-0.014-1.083,0.23s-0.567,0.596-0.677,1.055l-0.598,2.514l-0.709-0.168l1.112-4.687l0.585,0.14l-0.125,0.887
		l0.034,0.008c0.246-0.264,0.512-0.449,0.796-0.557C30.867,90.358,31.158,90.337,31.452,90.408z"/>
	<path fill="#FFFFFF" d="M38.968,96.171l-0.746-0.022l0.178-5.759l-2.034-0.063l0.021-0.664l4.814,0.148l-0.021,0.663l-2.033-0.063
		L38.968,96.171z"/>
	<path fill="#FFFFFF" d="M47.839,93.148c0.098,0.779-0.021,1.412-0.359,1.898s-0.853,0.773-1.543,0.859
		c-0.428,0.055-0.819,0.002-1.176-0.158c-0.357-0.158-0.648-0.414-0.875-0.767c-0.229-0.353-0.373-0.78-0.437-1.282
		c-0.099-0.779,0.021-1.412,0.354-1.895c0.334-0.483,0.85-0.77,1.541-0.855c0.668-0.084,1.229,0.072,1.678,0.467
		C47.472,91.812,47.743,92.389,47.839,93.148z M44.198,93.605c0.076,0.609,0.257,1.061,0.541,1.35
		c0.285,0.289,0.664,0.403,1.137,0.344c0.475-0.059,0.813-0.264,1.02-0.612s0.271-0.83,0.193-1.442
		c-0.076-0.609-0.257-1.055-0.542-1.338c-0.286-0.285-0.668-0.396-1.147-0.337c-0.474,0.06-0.812,0.261-1.014,0.601
		C44.185,92.511,44.12,92.99,44.198,93.605z"/>
	<path fill="#FFFFFF" d="M52.556,93.968c0.125-0.032,0.242-0.072,0.354-0.121s0.197-0.092,0.261-0.131l0.142,0.541
		c-0.066,0.057-0.17,0.117-0.313,0.18s-0.272,0.109-0.392,0.143c-0.901,0.235-1.478-0.121-1.727-1.07l-0.727-2.771l-0.668,0.176
		l-0.088-0.34l0.59-0.47l0.037-1.073l0.408-0.107l0.283,1.08l1.352-0.354l0.145,0.549l-1.352,0.354l0.719,2.742
		c0.072,0.279,0.195,0.478,0.369,0.593C52.12,94.003,52.323,94.031,52.556,93.968z"/>
	<path fill="#FFFFFF" d="M58.64,92.369l-0.39-0.582l-0.033,0.012c-0.11,0.369-0.257,0.648-0.438,0.836
		c-0.18,0.189-0.438,0.35-0.77,0.482c-0.443,0.178-0.836,0.203-1.18,0.076s-0.6-0.402-0.77-0.822
		c-0.361-0.902,0.17-1.666,1.596-2.289l0.75-0.33l-0.111-0.276c-0.141-0.351-0.32-0.58-0.539-0.687
		c-0.218-0.106-0.492-0.094-0.824,0.041c-0.373,0.148-0.748,0.432-1.127,0.85l-0.416-0.436c0.172-0.207,0.377-0.397,0.611-0.572
		c0.234-0.172,0.484-0.313,0.748-0.418c0.533-0.215,0.975-0.254,1.326-0.121c0.353,0.133,0.634,0.461,0.843,0.982l1.226,3.051
		L58.64,92.369z M56.92,92.505c0.421-0.17,0.706-0.418,0.854-0.746c0.147-0.327,0.138-0.699-0.029-1.115l-0.162-0.404l-0.666,0.301
		c-0.531,0.234-0.885,0.475-1.063,0.717c-0.18,0.244-0.205,0.523-0.08,0.834c0.098,0.246,0.246,0.402,0.447,0.471
		C56.42,92.63,56.653,92.612,56.92,92.505z"/>
	<path fill="#FFFFFF" d="M62.519,90.457l-0.644,0.346l-3.237-6.023l0.643-0.345L62.519,90.457z"/>
	<path fill="#FFFFFF" d="M66.549,80.632c-0.547,0.445-0.831,0.98-0.85,1.604s0.229,1.251,0.745,1.885
		c0.531,0.651,1.095,1.03,1.689,1.137c0.596,0.105,1.176-0.071,1.741-0.532c0.347-0.283,0.692-0.668,1.036-1.156l0.414,0.507
		c-0.24,0.411-0.613,0.823-1.119,1.236c-0.732,0.598-1.48,0.836-2.242,0.716c-0.761-0.12-1.477-0.59-2.145-1.409
		c-0.418-0.514-0.689-1.041-0.813-1.584c-0.123-0.541-0.088-1.064,0.104-1.57c0.193-0.504,0.533-0.955,1.023-1.355
		c0.521-0.426,1.057-0.703,1.604-0.83l0.16,0.697C67.375,80.106,66.926,80.326,66.549,80.632z"/>
	<path fill="#FFFFFF" d="M75.908,79.507l-0.609-0.346l-0.022,0.025c0.065,0.38,0.061,0.695-0.019,0.943
		c-0.079,0.25-0.235,0.509-0.474,0.775c-0.317,0.357-0.658,0.557-1.021,0.596s-0.716-0.092-1.055-0.394
		c-0.729-0.646-0.593-1.565,0.404-2.76l0.523-0.63l-0.224-0.197c-0.283-0.251-0.545-0.375-0.788-0.374
		c-0.243,0.002-0.482,0.138-0.721,0.403c-0.266,0.301-0.475,0.723-0.627,1.265l-0.566-0.203c0.061-0.263,0.158-0.524,0.291-0.784
		c0.133-0.261,0.293-0.496,0.482-0.709c0.381-0.43,0.759-0.664,1.133-0.701c0.375-0.039,0.771,0.129,1.193,0.502l2.457,2.183
		L75.908,79.507z M74.431,80.399c0.301-0.339,0.444-0.688,0.43-1.048c-0.014-0.359-0.188-0.688-0.523-0.984l-0.326-0.289
		l-0.461,0.565c-0.369,0.448-0.58,0.819-0.631,1.118c-0.051,0.298,0.051,0.559,0.303,0.781c0.196,0.176,0.399,0.25,0.608,0.221
		C74.039,80.735,74.239,80.615,74.431,80.399z"/>
	<path fill="#FFFFFF" d="M75.433,71.89c0.121-0.178,0.242-0.326,0.366-0.447l0.505,0.463c-0.148,0.141-0.266,0.273-0.351,0.399
		c-0.218,0.323-0.274,0.688-0.167,1.094c0.107,0.406,0.355,0.742,0.746,1.006l2.14,1.448l-0.409,0.604l-3.988-2.699l0.336-0.498
		l0.787,0.431l0.02-0.028c-0.16-0.324-0.238-0.639-0.238-0.941S75.265,72.14,75.433,71.89z"/>
	<path fill="#FFFFFF" d="M82.196,69.998c-0.316,0.637-0.762,1.043-1.332,1.219c-0.572,0.175-1.203,0.091-1.893-0.252
		c-0.695-0.346-1.162-0.793-1.4-1.338c-0.239-0.547-0.215-1.107,0.072-1.685c0.27-0.541,0.66-0.879,1.172-1.017
		c0.513-0.139,1.06-0.063,1.642,0.228l0.413,0.206l-1.479,2.971c0.512,0.238,0.959,0.301,1.344,0.189
		c0.383-0.111,0.684-0.389,0.902-0.829c0.231-0.464,0.363-0.972,0.396-1.522l0.582,0.291c-0.015,0.279-0.052,0.533-0.111,0.762
		C82.444,69.446,82.342,69.707,82.196,69.998z M78.187,68.221c-0.172,0.346-0.197,0.679-0.074,0.997s0.375,0.595,0.756,0.83
		l1.123-2.254c-0.412-0.205-0.773-0.271-1.083-0.196C78.597,67.671,78.356,67.88,78.187,68.221z"/>
</g>
</svg>
